# blowdownVars.inp
# aptplot script to extract variables of L.3.2-blowdown exercise
#-----------------------------------------------------------------------------
#
# Open TRAC data
new
trac 0 XTV "%tracin.xtv"
# The break flow rate
TREAD 0 "rmvm-31A06" SIU
# The Pressure
TREAD 0 "pn-1A20" SIU
# The break velocity
TREAD 0 "vvn-31A07" SIU
# The break temperature
TREAD 0 "tvn-31A06" SIU
# Collapsed water level
TREAD 0 "sv3" SIU
# Total mass release
TREAD 0 "cb1" SIU
TRAC 0 EXPORT CSV "%tracin.csv"
TRAC 0
EXIT
